<?xml version="1.0" encoding="utf-8"?>
<!-- Generated by IcoMoon.io -->
<!DOCTYPE svg PUBLIC "-//W3C//DTD SVG 1.1//EN" "http://www.w3.org/Graphics/SVG/1.1/DTD/svg11.dtd">
<svg version="1.1" xmlns="http://www.w3.org/2000/svg" xmlns:xlink="http://www.w3.org/1999/xlink" width="33" height="32" viewBox="0 0 33 32">
<path fill="#f5f5f5" d="M16.542 8.652h-4.588c-0.051 0-0.085 0.034-0.085 0.085 0 0.017 0 0.017 0 0.034 0 0 0 0 0 0.017v0c0.135 0.271 0.305 0.525 0.525 0.728 0.102 0.102 0.22 0.203 0.339 0.288 0 0 0 0 0 0 0.017 0 0.017 0.017 0.034 0.017 0 0 0 0 0 0 0.051 0.051 0.085 0.119 0.085 0.186 0 0.017 0 0.034 0 0.034s0 0.017 0 0.017c0 0 0 0 0 0s0 0.017 0 0.017v0.017c0 0.085 0.068 0.152 0.135 0.169h2.523c0.085-0.017 0.135-0.085 0.135-0.169v-0.017c0 0 0-0.017 0-0.017s0 0 0 0c0-0.017 0-0.034-0.017-0.034 0-0.017 0-0.017 0-0.034 0-0.085 0.034-0.152 0.085-0.186 0 0 0 0 0 0 0.017 0 0.017-0.017 0.034-0.017 0.119-0.085 0.237-0.186 0.339-0.288 0.22-0.22 0.389-0.474 0.525-0.728 0 0 0 0 0 0 0-0.017 0-0.017 0-0.034 0.017-0.051-0.017-0.085-0.068-0.085v0z"></path>
<path fill="#f5f5f5" d="M16.83 8.025c0-0.203-0.169-0.372-0.372-0.372h-4.419c-0.203 0-0.373 0.169-0.373 0.372 0 0.017 0 0.034 0 0.051v0c0 0.034 0.017 0.068 0.017 0.102 0 0 0 0 0 0 0.017 0.068 0.085 0.135 0.169 0.135h4.808c0.085 0 0.152-0.051 0.169-0.135 0 0 0 0 0 0 0-0.034 0.017-0.068 0.017-0.102v0c-0.017-0.017-0.017-0.034-0.017-0.051v0z"></path>
<path fill="#f5f5f5" d="M15.374 7.247l-0.051 0.051c0 0 0 0 0 0-0.017 0.017-0.017 0.034-0.017 0.051 0 0.034 0.034 0.068 0.068 0.068h0.169c0.051 0 0.085-0.017 0.119-0.051 0 0 0 0 0 0l0.931-0.931c0.034-0.051 0.034-0.119-0.017-0.169l-0.017-0.017c-0.051-0.051-0.119-0.051-0.169-0.017l-1.016 1.016z"></path>
<path fill="#f5f5f5" d="M14.815 7.416h0.102c0.051 0 0.085-0.034 0.102-0.068l0.677-1.439c0.017-0.068-0.017-0.135-0.068-0.152h-0.017c-0.068-0.034-0.135 0-0.169 0.051l-0.017 0.034-0.694 1.456c0 0 0 0 0 0s0 0.017 0 0.017c0 0.051 0.034 0.102 0.085 0.102z"></path>
<path fill="#f5f5f5" d="M18.083 28.529c0 0.169-0.051 0.305-0.102 0.406 0 0 0 0 0 0s0 0 0 0 0 0.017 0 0.017c0 0.034 0.017 0.051 0.051 0.051 0.017 0 0.017 0 0.017 0s0 0 0.017 0c0.203-0.169 0.389-0.423 0.389-0.728 0-0.406-0.525-0.61-0.525-0.948 0-0.119 0.017-0.22 0.051-0.305 0 0 0-0.017 0-0.017s0 0 0-0.017c0-0.034-0.017-0.051-0.051-0.051-0.017 0-0.017 0-0.017 0s0 0-0.017 0.017c-0.135 0.119-0.322 0.339-0.322 0.643 0 0.542 0.508 0.542 0.508 0.931v0z"></path>
<path fill="#f5f5f5" d="M17.287 28.563c0 0.068-0.017 0.135-0.034 0.186 0 0 0 0.017 0 0.017s0 0 0 0.017c0 0.034 0.017 0.051 0.051 0.051 0.017 0 0.017 0 0.034-0.017 0 0 0 0 0 0 0.102-0.102 0.169-0.237 0.169-0.389 0-0.254-0.322-0.372-0.322-0.593 0-0.051 0-0.102 0.017-0.135 0 0 0 0 0 0s0 0 0-0.017c0-0.034-0.017-0.051-0.051-0.051-0.017 0-0.017 0-0.034 0.017 0 0 0 0 0 0-0.068 0.085-0.152 0.203-0.152 0.356 0 0.305 0.322 0.322 0.322 0.559v0z"></path>
<path fill="#f5f5f5" d="M19.945 30.341h-4.487c-0.051 0-0.085 0.034-0.085 0.085 0 0.017 0 0.017 0 0.034 0 0 0 0 0 0s0 0 0 0c0.119 0.271 0.288 0.508 0.508 0.711 0.102 0.102 0.22 0.203 0.322 0.271 0 0 0 0 0 0 0.017 0 0.017 0.017 0.034 0.017 0 0 0 0 0 0 0.051 0.051 0.085 0.119 0.085 0.186 0 0.017 0 0.034 0 0.034s0 0.017 0 0.017c0 0 0 0 0 0s0 0.017 0 0.017v0.017c0 0.085 0.068 0.152 0.135 0.152h2.472c0.085-0.017 0.135-0.085 0.135-0.152v-0.017c0 0 0-0.017 0-0.017s0 0 0 0c0-0.017 0-0.034-0.017-0.034 0-0.017 0-0.017 0-0.034 0-0.068 0.034-0.135 0.085-0.186 0 0 0 0 0 0 0.017 0 0.017-0.017 0.034-0.017 0.119-0.085 0.22-0.169 0.322-0.271 0.22-0.22 0.389-0.457 0.508-0.711 0 0 0 0 0 0 0-0.017 0-0.017 0-0.034 0.034-0.034-0.017-0.068-0.051-0.068v0z"></path>
<path fill="#f5f5f5" d="M20.233 29.731c0-0.203-0.169-0.356-0.356-0.356h-4.334c-0.203 0-0.356 0.169-0.356 0.356 0 0.017 0 0.034 0 0.051v0c0 0.034 0.017 0.068 0.017 0.102 0 0 0 0 0 0 0.017 0.068 0.085 0.119 0.152 0.119h4.69c0.085 0 0.135-0.051 0.152-0.135 0 0 0 0 0 0 0-0.034 0.017-0.068 0.017-0.102v0c0 0.017 0.017 0 0.017-0.034v0z"></path>
<path fill="#f5f5f5" d="M32.525 24.33c-0.017 0-0.034-0.017-0.051-0.034-0.051-0.034-0.085-0.102-0.085-0.152 0 0 0-0.017 0-0.017s0-0.017 0-0.017c0 0 0 0 0 0 0-0.051 0.017-0.102 0.017-0.152 0-0.677-0.542-1.219-1.219-1.219-0.423 0-0.796 0.22-1.016 0.542v0c0 0 0 0.017-0.017 0.017 0 0 0 0 0 0-0.034 0.051-0.102 0.085-0.152 0.085-0.034 0-0.068-0.017-0.102-0.034-0.017 0-0.017-0.017-0.017-0.017-0.135-0.085-0.305-0.152-0.474-0.152-0.474 0-0.863 0.389-0.863 0.863 0 0.034 0 0.051 0 0.085 0 0 0 0.017 0 0.017s0 0 0 0.017c0 0.068-0.034 0.135-0.085 0.169-0.017 0-0.017 0.017-0.034 0.017-0.305 0.169-0.525 0.508-0.525 0.897 0 0.474 0.339 0.88 0.779 0.982 0 0 0 0 0 0 0.135 0.034 0.22 0.169 0.237 0.305l0.085 1.338c0 0 0 0 0 0s0 0 0 0c0 0.085-0.034 0.152-0.068 0.203 0 0 0 0 0 0.017-0.034 0.034-0.051 0.085-0.051 0.152 0 0.135 0.102 0.237 0.237 0.237h2.777c0.119-0.017 0.22-0.119 0.22-0.237 0-0.051-0.017-0.102-0.051-0.152 0 0 0 0 0 0-0.051-0.068-0.068-0.135-0.068-0.22 0 0 0 0 0 0s0 0 0 0l0.085-1.338c0.017-0.152 0.102-0.271 0.237-0.305 0 0 0 0 0 0 0.44-0.102 0.779-0.508 0.779-0.999-0.034-0.389-0.254-0.728-0.576-0.897v0z"></path>
<path fill="#f5f5f5" d="M29.105 10.43c0 0.051-0.017 0.102-0.017 0.135 0 0 0 0 0 0.017 0 0 0 0 0 0 0 0.017 0.017 0.034 0.034 0.034s0.017 0 0.034-0.017c0 0 0 0 0 0 0.085-0.085 0.135-0.186 0.135-0.322 0-0.203-0.254-0.305-0.254-0.474 0-0.034 0-0.068 0.017-0.102 0 0 0 0 0 0s0 0 0 0c0-0.017-0.017-0.034-0.034-0.034s-0.017 0-0.034 0.017c0 0 0 0 0 0-0.068 0.068-0.119 0.152-0.119 0.288-0.017 0.254 0.237 0.254 0.237 0.457v0z"></path>
<path fill="#f5f5f5" d="M29.731 10.396c0 0.135-0.034 0.254-0.085 0.322 0 0 0 0 0 0s0 0 0 0 0 0.017 0 0.017 0.017 0.034 0.034 0.034c0 0 0.017 0 0.017 0s0 0 0 0c0.169-0.135 0.305-0.339 0.305-0.576 0-0.322-0.406-0.474-0.406-0.745 0-0.102 0.017-0.186 0.034-0.237 0 0 0 0 0-0.017 0 0 0 0 0 0 0-0.017-0.017-0.034-0.034-0.034 0 0-0.017 0-0.017 0s0 0-0.017 0.017c-0.119 0.102-0.254 0.271-0.254 0.508 0.017 0.389 0.423 0.406 0.423 0.711v0z"></path>
<path fill="#f5f5f5" d="M31.475 11.141h-4.080c-0.068 0-0.135 0.051-0.135 0.135 0 0 0 0.017 0 0.017s0 0 0 0 0 0.017 0 0.017c0.085 0.576 0.474 1.202 1.067 1.558v0c0 0 0.017 0.017 0.017 0.017s0 0 0 0c0.068 0.051 0.085 0.119 0.068 0.237l-0.288 2.049c-0.017 0.068 0.017 0.152 0.102 0.169h0.017c0.068 0.034 0.186 0 0.203-0.102l0.068-0.457c0 0 0 0 0 0 0.017-0.068 0.068-0.135 0.152-0.135h1.524c0.085 0 0.135 0.051 0.152 0.135 0 0 0 0 0 0l0.068 0.457c0.017 0.119 0.119 0.135 0.203 0.102h0.017c0.068-0.034 0.119-0.102 0.102-0.169l-0.288-2.049c-0.017-0.119 0-0.203 0.068-0.237 0 0 0 0 0 0s0.017-0.017 0.017-0.017c0.61-0.356 0.982-0.965 1.067-1.558 0 0 0-0.017 0-0.017s0 0 0 0 0 0 0-0.017c0-0.085-0.051-0.135-0.119-0.135v0zM28.478 12.495c-0.322-0.169-0.542-0.457-0.66-0.779 0 0 0 0 0 0s0 0 0 0c-0.017-0.068 0.017-0.135 0.068-0.152 0.068-0.017 0.135 0.017 0.152 0.068 0 0 0 0 0 0 0.102 0.271 0.288 0.508 0.559 0.643 0.051 0.034 0.085 0.102 0.051 0.169-0.034 0.051-0.102 0.085-0.169 0.051zM28.749 14.324c-0.085 0-0.152-0.068-0.152-0.152 0 0 0-0.017 0-0.017v0l0.119-0.931c0.017-0.085 0.102-0.135 0.186-0.135v0c0.017 0 0.017 0 0.034 0v0c0 0 0.017 0 0.017 0 0.152 0.034 0.305 0.051 0.474 0.051s0.339-0.017 0.491-0.051c0 0 0 0 0 0 0.017 0 0.017 0 0.034 0 0.085 0 0.169 0.051 0.186 0.135v0l0.119 0.914c0 0 0 0.017 0 0.017 0 0.085-0.068 0.152-0.152 0.152l-1.355 0.017z"></path>
<path fill="#f5f5f5" d="M16.863 19.014c0 0 0.017 0 0.017-0.017 0 0 0 0 0 0 0.305-0.152 0.525-0.457 0.525-0.813 0-0.61-0.068-1.202-0.186-1.778 0 0 0 0 0 0s0-0.017 0-0.017c-0.017-0.051-0.068-0.085-0.119-0.085-0.068 0-0.119 0.051-0.119 0.119 0 0 0 0.017 0 0.017 0 0.102 0.034 0.457 0.034 0.982 0 0.152 0 0.322 0 0.508 0 0.085-0.068 0.152-0.152 0.152s-0.152-0.068-0.152-0.135c0 0 0-0.017 0-0.017s0 0 0 0l-0.034-0.643-0.051-0.863c0-0.068-0.051-0.119-0.119-0.119s-0.119 0.051-0.119 0.119l-0.034 0.863-0.034 0.643c0 0 0 0.017 0 0.017s0 0 0 0c0 0.085-0.068 0.135-0.152 0.135s-0.152-0.068-0.152-0.152c0-0.186 0-0.356 0-0.508 0.017-0.525 0.034-0.88 0.034-0.982 0-0.017 0-0.017 0-0.017 0-0.068-0.051-0.119-0.135-0.119-0.051 0-0.102 0.034-0.119 0.085 0 0 0 0 0 0s0 0.017 0 0.017c-0.119 0.576-0.186 1.168-0.186 1.778 0 0.356 0.22 0.677 0.525 0.813 0 0 0.017 0 0.017 0.017 0 0 0 0 0 0 0.051 0.034 0.085 0.085 0.085 0.135 0 0 0 0 0 0v0c-0.017 0.474-0.051 1.27-0.085 1.947-0.017 0.474-0.051 0.88-0.051 1.067 0 0 0 0.017 0 0.017 0 0.102 0.051 0.203 0.119 0.288 0.085 0.085 0.186 0.135 0.305 0.135 0 0 0 0 0 0s0 0 0 0c0.119 0 0.22-0.051 0.305-0.135s0.119-0.186 0.119-0.288c0 0 0-0.017 0-0.017-0.017-0.203-0.034-0.61-0.051-1.067-0.034-0.677-0.068-1.473-0.085-1.947v0c0 0 0 0 0 0-0.034-0.051 0-0.102 0.051-0.135v0z"></path>
<path fill="#f5f5f5" d="M14.916 18.624v-2.201c0-0.068-0.051-0.119-0.119-0.119-0.034 0-0.068 0.017-0.102 0.034v0c-0.305 0.322-0.796 1.151-0.796 3.031 0 0.559 0.288 0.643 0.271 1.067 0 0 0 0 0 0-0.034 0.66-0.085 1.473-0.119 1.744 0 0 0 0.017 0 0.017 0 0.22 0.186 0.423 0.423 0.423 0 0 0 0 0 0s0 0 0 0c0.237 0 0.44-0.203 0.423-0.423 0 0 0-0.017 0-0.017 0.017 0 0.017-3.42 0.017-3.556v0z"></path>
<path fill="#f5f5f5" d="M3.826 15.746c0 0.779-0.643 1.422-1.422 1.422s-1.422-0.643-1.422-1.422c0-0.779 0.643-1.422 1.422-1.422s1.422 0.626 1.422 1.422z"></path>
<path fill="#f5f5f5" d="M2.404 13.308c-1.338 0-2.404 1.067-2.404 2.404s1.067 2.404 2.404 2.404 2.404-1.067 2.404-2.404-1.067-2.404-2.404-2.404zM2.404 17.456c-0.965 0-1.71-0.762-1.71-1.71s0.762-1.71 1.71-1.71 1.727 0.745 1.727 1.71c0 0.931-0.762 1.71-1.727 1.71z"></path>
<path fill="#f5f5f5" d="M27.192 3.149v0c-0.034-0.017-0.051-0.017-0.085-0.017h-5.418c-0.017 0-0.034 0-0.051 0.017v0c0 0-0.017 0-0.017 0s0 0 0 0c-0.051 0.017-0.102 0.068-0.102 0.135s0.034 0.119 0.102 0.135c0 0 0 0 0 0 0.017 0 0.085 0.017 0.152 0.017 0.83 0.068 4.436 0.068 5.266 0 0.085 0 0.135-0.017 0.152-0.017 0 0 0 0 0 0 0.051-0.017 0.102-0.068 0.102-0.135-0.017-0.068-0.051-0.119-0.102-0.135z"></path>
<path fill="#f5f5f5" d="M21.926 2.895h4.944c0.085 0 0.152-0.068 0.152-0.152 0 0 0-0.017 0-0.017v0c0 0 0-0.017 0-0.017-0.169-1.067-0.982-1.913-2.015-2.167 0 0 0 0 0 0s-0.017 0-0.017 0c-0.051-0.017-0.102-0.068-0.102-0.119 0 0 0 0 0 0s0-0.017 0-0.017c-0.068-0.237-0.254-0.406-0.491-0.406s-0.44 0.169-0.474 0.406c0 0 0 0.017 0 0.017-0.017 0.051-0.051 0.102-0.102 0.119 0 0-0.017 0-0.017 0s0 0 0 0c-1.033 0.237-1.846 1.101-2.015 2.167 0 0 0 0.017 0 0.017v0c0 0 0 0.017 0 0.017-0.017 0.085 0.051 0.152 0.135 0.152v0zM24.398 0.305c0.102 0 0.169 0.085 0.169 0.169 0 0 0 0 0 0-0.051 0-0.119 0-0.169 0s-0.119 0-0.169 0c0 0 0 0 0 0-0.017-0.085 0.068-0.169 0.169-0.169z"></path>
<path fill="#f5f5f5" d="M4.402 26.345c0 0 0.017 0 0.017 0s0 0 0 0c0.322 0.119 0.965 0.322 1.202 0.051 0.339-0.389 0.711-0.88 0.999-1.27 0.017-0.034 0.034-0.051 0.051-0.085 0-0.017 0.017-0.017 0.017-0.034 0.068-0.119 0.051-0.271-0.051-0.389 0 0 0 0 0 0s-0.017-0.017-0.017-0.017c0 0 0 0-0.017-0.017 0 0 0 0 0 0s0 0 0 0c-0.169-0.186-0.288-0.322-0.474-0.508s-0.322-0.305-0.508-0.474c0 0 0 0 0 0s0 0 0 0 0 0-0.017-0.017c0 0-0.017-0.017-0.017-0.017s0 0 0 0c-0.119-0.085-0.254-0.102-0.389-0.051-0.017 0-0.017 0.017-0.034 0.017-0.034 0.017-0.051 0.034-0.085 0.051-0.406 0.288-0.897 0.66-1.27 0.999-0.271 0.237-0.051 0.88 0.051 1.202 0 0 0 0 0 0s0 0.017 0 0.017c0.017 0.051 0 0.119-0.034 0.152 0 0 0 0 0 0v0c-0.339 0.305-0.914 0.847-1.405 1.287-0.339 0.305-0.643 0.576-0.779 0.711 0 0 0 0-0.017 0.017-0.085 0.068-0.119 0.169-0.119 0.288 0 0.102 0.034 0.22 0.119 0.305 0 0 0 0 0 0s0 0 0 0c0.085 0.085 0.186 0.119 0.305 0.119 0.102 0 0.22-0.034 0.288-0.119 0 0 0 0 0.017-0.017 0.135-0.152 0.389-0.44 0.711-0.779 0.44-0.491 0.982-1.067 1.287-1.405v0c0 0 0 0 0 0 0.051-0.017 0.119-0.034 0.169-0.017v0zM5.621 24.33l-1.016 0.965c0 0 0 0 0 0s0 0-0.017 0.017c-0.068 0.051-0.186 0-0.271-0.085s-0.135-0.237-0.085-0.288c0.135-0.135 1.016-0.88 1.067-0.931 0 0 0 0 0-0.017 0 0 0.017-0.017 0.034-0.017 0.051-0.034 0.135-0.034 0.186 0 0.034 0.017 0.068 0.051 0.119 0.102 0.051 0.068 0.051 0.152 0 0.22 0 0 0 0 0 0 0 0.017-0.017 0.017-0.017 0.034v0zM4.927 25.634c0 0 0 0 0 0 0.017 0 0.017 0 0 0l0.982-1.016c0 0 0.017-0.017 0.017-0.017s0 0 0 0c0.068-0.051 0.152-0.068 0.22 0 0.051 0.034 0.085 0.085 0.102 0.119 0.034 0.051 0.051 0.135 0 0.186 0 0.017-0.017 0.017-0.017 0.034 0 0 0 0-0.017 0-0.051 0.051-0.796 0.931-0.931 1.067-0.068 0.068-0.203 0.017-0.288-0.085-0.068-0.102-0.119-0.22-0.068-0.288v0z"></path>
<path fill="#f5f5f5" d="M5.858 3.742c0-0.017 0-0.017 0-0.034 0-0.051 0.034-0.085 0.085-0.102 0 0 0.017 0 0.017-0.017 0 0 0 0 0 0 0.085-0.034 0.152-0.085 0.22-0.152 0.186-0.169 0.322-0.474 0.322-0.745 0-0.88-0.406-1.727-0.914-1.727s-0.914 0.847-0.914 1.727c0 0.254 0.152 0.576 0.322 0.745 0.068 0.051 0.135 0.102 0.22 0.152 0 0 0 0 0 0s0.017 0 0.017 0.017c0.034 0.017 0.068 0.068 0.085 0.102 0 0 0 0.017 0 0.034 0 0 0 0 0 0v0c-0.017 0.457-0.051 1.253-0.085 1.913-0.017 0.457-0.034 0.847-0.051 1.050 0 0 0 0.017 0 0.017 0 0.102 0.051 0.203 0.119 0.288 0.085 0.085 0.186 0.119 0.305 0.135 0 0 0 0 0 0v0 0c0 0 0 0 0 0 0.119 0 0.22-0.051 0.305-0.135 0.085-0.068 0.119-0.169 0.119-0.288 0 0 0-0.017 0-0.017-0.017-0.203-0.034-0.593-0.051-1.050-0.051-0.643-0.085-1.439-0.119-1.913v0c0 0 0 0 0 0z"></path>
<path fill="#f5f5f5" d="M3.962 1.084c0-0.017-0.017-0.017 0 0-0.017-0.068-0.068-0.119-0.135-0.119s-0.119 0.051-0.119 0.119c0 0 0 0.017 0 0.017 0 0.085 0.034 0.44 0.034 0.965 0 0.152 0 0.322 0 0.508 0 0.085-0.068 0.152-0.152 0.152s-0.152-0.068-0.152-0.135c0 0 0-0.017 0-0.017s0 0 0 0l-0.034-0.626-0.034-0.847c0-0.068-0.051-0.119-0.119-0.119s-0.119 0.051-0.119 0.119l-0.034 0.847-0.034 0.626c0 0 0 0 0 0s0 0.017 0 0.017c0 0 0 0 0 0 0 0.085-0.068 0.135-0.152 0.135s-0.152-0.068-0.152-0.152c0-0.186 0-0.339 0-0.508 0.017-0.508 0.034-0.864 0.034-0.965 0-0.017 0-0.017 0-0.017 0-0.068-0.051-0.119-0.119-0.119-0.051 0-0.102 0.034-0.119 0.085 0 0 0 0 0 0s0 0.017 0 0.017c-0.119 0.576-0.186 1.151-0.186 1.744 0 0.356 0.203 0.66 0.508 0.796 0 0 0.017 0 0.017 0.017 0 0 0 0 0 0 0.051 0.034 0.085 0.085 0.085 0.135 0 0 0 0 0 0v0c-0.017 0.457-0.051 1.236-0.085 1.896-0.017 0.457-0.034 0.864-0.051 1.050 0 0 0 0.017 0 0.017 0 0.102 0.051 0.203 0.119 0.288 0.085 0.085 0.186 0.119 0.305 0.135 0 0 0 0 0 0s0 0 0 0c0.119 0 0.22-0.051 0.305-0.135 0.085-0.068 0.119-0.169 0.119-0.288 0 0 0-0.017 0-0.017-0.017-0.203-0.034-0.593-0.051-1.050-0.034-0.66-0.068-1.439-0.085-1.896v0c0 0 0 0 0 0 0-0.051 0.034-0.102 0.085-0.135 0 0 0.017 0 0.017-0.017 0 0 0 0 0 0 0.305-0.135 0.508-0.44 0.508-0.796-0.017-0.593-0.085-1.168-0.203-1.727 0 0 0 0 0 0z"></path>
</svg>
